# patient ID, Diagnosis, Tag (Optional)
"09", Healthy, Training
"10", Healthy, Validation
"14", Tremor, Training
"15", Dystonia, Validation
"17", Tremor, Validation
"21", Dystonia, Training
"24", Myoclonus, Training
"26", Myoclonus, Validation
"30", Tremor
"31", Myoclonus
"32", Myoclonus
"33", Healthy
"34", Healthy
"35", Tremor
"36", Myoclonus
